^F:\FASTDPM-2015-NOV\FASTDPM-2015-NOV\FASTDPM-2014-MAY\AUXILIARY\CVPRINT.CPP|F:\FASTDPM-2015-NOV\FASTDPM-2015-NOV\FASTDPM-2014-MAY\AUXILIARY\GETCURRENTTIME.CPP|F:\FASTDPM-2015-NOV\FASTDPM-2015-NOV\FASTDPM-2014-MAY\AUXILIARY\YUSAVEMAT.CPP|F:\FASTDPM-2015-NOV\FASTDPM-2015-NOV\FASTDPM-2014-MAY\FASTDPM.CPP|F:\FASTDPM-2015-NOV\FASTDPM-2015-NOV\FASTDPM-2014-MAY\FUNS\ANALYZE_MODEL.CPP|F:\FASTDPM-2015-NOV\FASTDPM-2015-NOV\FASTDPM-2014-MAY\FUNS\APPLY_RULES.CPP|F:\FASTDPM-2015-NOV\FASTDPM-2015-NOV\FASTDPM-2014-MAY\FUNS\APPLY_RULES2.CPP|F:\FASTDPM-2015-NOV\FASTDPM-2015-NOV\FASTDPM-2014-MAY\FUNS\APPLY_RULES3.CPP|F:\FASTDPM-2015-NOV\FASTDPM-2015-NOV\FASTDPM-2014-MAY\FUNS\BBOXPRED_GET.CPP|F:\FASTDPM-2015-NOV\FASTDPM-2015-NOV\FASTDPM-2014-MAY\FUNS\BBOXPRED_INPUT.CPP|F:\FASTDPM-2015-NOV\FASTDPM-2015-NOV\FASTDPM-2014-MAY\FUNS\BOUNDED_DT.CPP|F:\FASTDPM-2015-NOV\FASTDPM-2015-NOV\FASTDPM-2014-MAY\FUNS\BOUNDED_DT2.CPP|F:\FASTDPM-2015-NOV\FASTDPM-2015-NOV\FASTDPM-2014-MAY\FUNS\CLIPBOXES.CPP|F:\FASTDPM-2015-NOV\FASTDPM-2015-NOV\FASTDPM-2014-MAY\FUNS\CVPERMUTATE.CPP|F:\FASTDPM-2015-NOV\FASTDPM-2015-NOV\FASTDPM-2014-MAY\FUNS\DETECTIONS_TREES2.CPP|F:\FASTDPM-2015-NOV\FASTDPM-2015-NOV\FASTDPM-2014-MAY\FUNS\DRAW_IMG.CPP|F:\FASTDPM-2015-NOV\FASTDPM-2015-NOV\FASTDPM-2014-MAY\FUNS\FCONV.CPP|F:\FASTDPM-2015-NOV\FASTDPM-2015-NOV\FASTDPM-2014-MAY\FUNS\FEATPYRAMID.CPP|F:\FASTDPM-2015-NOV\FASTDPM-2015-NOV\FASTDPM-2014-MAY\FUNS\FEATPYRAMID2.CPP|F:\FASTDPM-2015-NOV\FASTDPM-2015-NOV\FASTDPM-2014-MAY\FUNS\FEATURES.CPP|F:\FASTDPM-2015-NOV\FASTDPM-2015-NOV\FASTDPM-2014-MAY\FUNS\FEATURES14_2.CPP|F:\FASTDPM-2015-NOV\FASTDPM-2015-NOV\FASTDPM-2014-MAY\FUNS\FLIPFEAT.CPP|F:\FASTDPM-2015-NOV\FASTDPM-2015-NOV\FASTDPM-2014-MAY\FUNS\GET_SCORE_SIZE.CPP|F:\FASTDPM-2015-NOV\FASTDPM-2015-NOV\FASTDPM-2014-MAY\FUNS\LOAD_MODEL.CPP|F:\FASTDPM-2015-NOV\FASTDPM-2015-NOV\FASTDPM-2014-MAY\FUNS\LOC_FEAT.CPP|F:\FASTDPM-2015-NOV\FASTDPM-2015-NOV\FASTDPM-2014-MAY\FUNS\MODEL_GET_BLOCK.CPP|F:\FASTDPM-2015-NOV\FASTDPM-2015-NOV\FASTDPM-2014-MAY\FUNS\NMS.CPP|F:\FASTDPM-2015-NOV\FASTDPM-2015-NOV\FASTDPM-2014-MAY\FUNS\PARSE_DETECTIONS.CPP|F:\FASTDPM-2015-NOV\FASTDPM-2015-NOV\FASTDPM-2014-MAY\FUNS\PDOLLAR_NMS.CPP|F:\FASTDPM-2015-NOV\FASTDPM-2015-NOV\FASTDPM-2014-MAY\FUNS\REDUCEBOXES.CPP|F:\FASTDPM-2015-NOV\FASTDPM-2015-NOV\FASTDPM-2014-MAY\FUNS\SUM_SCORE.CPP|F:\FASTDPM-2015-NOV\FASTDPM-2015-NOV\FASTDPM-2014-MAY\FUNS\YUIND2SUB.CPP|F:\FASTDPM-2015-NOV\FASTDPM-2015-NOV\FASTDPM-2014-MAY\LOADPYRAMID.CPP|F:\FASTDPM-2015-NOV\FASTDPM-2015-NOV\FASTDPM-2014-MAY\MAIN.CPP|F:\FASTDPM-2015-NOV\FASTDPM-2015-NOV\FASTDPM-2014-MAY\YUSTDDIRFILES_标准库目录操作.CPP
F:\FASTDPM-2015-NOV\FASTDPM-2015-NOV\FASTDPM-2014-MAY\DEBUG\YUSTDDIRFILES_标准库目录操作.OBJ
^F:\FASTDPM-2015-NOV\FASTDPM-2015-NOV\FASTDPM-2014-MAY\FASTDPM.CPP
F:\FASTDPM-2015-NOV\FASTDPM-2015-NOV\FASTDPM-2014-MAY\DEBUG\VC100.PDB
^F:\FASTDPM-2015-NOV\FASTDPM-2015-NOV\FASTDPM-2014-MAY\LOADPYRAMID.CPP
F:\FASTDPM-2015-NOV\FASTDPM-2015-NOV\FASTDPM-2014-MAY\DEBUG\VC100.PDB
^F:\FASTDPM-2015-NOV\FASTDPM-2015-NOV\FASTDPM-2014-MAY\MAIN.CPP
F:\FASTDPM-2015-NOV\FASTDPM-2015-NOV\FASTDPM-2014-MAY\DEBUG\VC100.PDB
F:\FASTDPM-2015-NOV\FASTDPM-2015-NOV\FASTDPM-2014-MAY\DEBUG\MAIN.OBJ
^F:\FASTDPM-2015-NOV\FASTDPM-2015-NOV\FASTDPM-2014-MAY\YUSTDDIRFILES_标准库目录操作.CPP
F:\FASTDPM-2015-NOV\FASTDPM-2015-NOV\FASTDPM-2014-MAY\DEBUG\VC100.PDB
^F:\FASTDPM-2015-NOV\FASTDPM-2015-NOV\FASTDPM-2014-MAY\AUXILIARY\CVPRINT.CPP
F:\FASTDPM-2015-NOV\FASTDPM-2015-NOV\FASTDPM-2014-MAY\DEBUG\VC100.PDB
^F:\FASTDPM-2015-NOV\FASTDPM-2015-NOV\FASTDPM-2014-MAY\AUXILIARY\GETCURRENTTIME.CPP
F:\FASTDPM-2015-NOV\FASTDPM-2015-NOV\FASTDPM-2014-MAY\DEBUG\VC100.PDB
^F:\FASTDPM-2015-NOV\FASTDPM-2015-NOV\FASTDPM-2014-MAY\AUXILIARY\YUSAVEMAT.CPP
F:\FASTDPM-2015-NOV\FASTDPM-2015-NOV\FASTDPM-2014-MAY\DEBUG\VC100.PDB
^F:\FASTDPM-2015-NOV\FASTDPM-2015-NOV\FASTDPM-2014-MAY\FUNS\ANALYZE_MODEL.CPP
F:\FASTDPM-2015-NOV\FASTDPM-2015-NOV\FASTDPM-2014-MAY\DEBUG\VC100.PDB
^F:\FASTDPM-2015-NOV\FASTDPM-2015-NOV\FASTDPM-2014-MAY\FUNS\APPLY_RULES.CPP
F:\FASTDPM-2015-NOV\FASTDPM-2015-NOV\FASTDPM-2014-MAY\DEBUG\VC100.PDB
^F:\FASTDPM-2015-NOV\FASTDPM-2015-NOV\FASTDPM-2014-MAY\FUNS\APPLY_RULES2.CPP
F:\FASTDPM-2015-NOV\FASTDPM-2015-NOV\FASTDPM-2014-MAY\DEBUG\VC100.PDB
^F:\FASTDPM-2015-NOV\FASTDPM-2015-NOV\FASTDPM-2014-MAY\FUNS\APPLY_RULES3.CPP
F:\FASTDPM-2015-NOV\FASTDPM-2015-NOV\FASTDPM-2014-MAY\DEBUG\VC100.PDB
^F:\FASTDPM-2015-NOV\FASTDPM-2015-NOV\FASTDPM-2014-MAY\FUNS\BBOXPRED_GET.CPP
F:\FASTDPM-2015-NOV\FASTDPM-2015-NOV\FASTDPM-2014-MAY\DEBUG\VC100.PDB
^F:\FASTDPM-2015-NOV\FASTDPM-2015-NOV\FASTDPM-2014-MAY\FUNS\BBOXPRED_INPUT.CPP
F:\FASTDPM-2015-NOV\FASTDPM-2015-NOV\FASTDPM-2014-MAY\DEBUG\VC100.PDB
^F:\FASTDPM-2015-NOV\FASTDPM-2015-NOV\FASTDPM-2014-MAY\FUNS\BOUNDED_DT.CPP
F:\FASTDPM-2015-NOV\FASTDPM-2015-NOV\FASTDPM-2014-MAY\DEBUG\VC100.PDB
^F:\FASTDPM-2015-NOV\FASTDPM-2015-NOV\FASTDPM-2014-MAY\FUNS\BOUNDED_DT2.CPP
F:\FASTDPM-2015-NOV\FASTDPM-2015-NOV\FASTDPM-2014-MAY\DEBUG\VC100.PDB
^F:\FASTDPM-2015-NOV\FASTDPM-2015-NOV\FASTDPM-2014-MAY\FUNS\CLIPBOXES.CPP
F:\FASTDPM-2015-NOV\FASTDPM-2015-NOV\FASTDPM-2014-MAY\DEBUG\VC100.PDB
^F:\FASTDPM-2015-NOV\FASTDPM-2015-NOV\FASTDPM-2014-MAY\FUNS\CVPERMUTATE.CPP
F:\FASTDPM-2015-NOV\FASTDPM-2015-NOV\FASTDPM-2014-MAY\DEBUG\VC100.PDB
^F:\FASTDPM-2015-NOV\FASTDPM-2015-NOV\FASTDPM-2014-MAY\FUNS\DETECTIONS_TREES2.CPP
F:\FASTDPM-2015-NOV\FASTDPM-2015-NOV\FASTDPM-2014-MAY\DEBUG\VC100.PDB
^F:\FASTDPM-2015-NOV\FASTDPM-2015-NOV\FASTDPM-2014-MAY\FUNS\DRAW_IMG.CPP
F:\FASTDPM-2015-NOV\FASTDPM-2015-NOV\FASTDPM-2014-MAY\DEBUG\VC100.PDB
^F:\FASTDPM-2015-NOV\FASTDPM-2015-NOV\FASTDPM-2014-MAY\FUNS\FCONV.CPP
F:\FASTDPM-2015-NOV\FASTDPM-2015-NOV\FASTDPM-2014-MAY\DEBUG\VC100.PDB
^F:\FASTDPM-2015-NOV\FASTDPM-2015-NOV\FASTDPM-2014-MAY\FUNS\FEATPYRAMID.CPP
F:\FASTDPM-2015-NOV\FASTDPM-2015-NOV\FASTDPM-2014-MAY\DEBUG\VC100.PDB
^F:\FASTDPM-2015-NOV\FASTDPM-2015-NOV\FASTDPM-2014-MAY\FUNS\FEATPYRAMID2.CPP
F:\FASTDPM-2015-NOV\FASTDPM-2015-NOV\FASTDPM-2014-MAY\DEBUG\VC100.PDB
^F:\FASTDPM-2015-NOV\FASTDPM-2015-NOV\FASTDPM-2014-MAY\FUNS\FEATURES.CPP
F:\FASTDPM-2015-NOV\FASTDPM-2015-NOV\FASTDPM-2014-MAY\DEBUG\VC100.PDB
^F:\FASTDPM-2015-NOV\FASTDPM-2015-NOV\FASTDPM-2014-MAY\FUNS\FEATURES14_2.CPP
F:\FASTDPM-2015-NOV\FASTDPM-2015-NOV\FASTDPM-2014-MAY\DEBUG\VC100.PDB
^F:\FASTDPM-2015-NOV\FASTDPM-2015-NOV\FASTDPM-2014-MAY\FUNS\FLIPFEAT.CPP
F:\FASTDPM-2015-NOV\FASTDPM-2015-NOV\FASTDPM-2014-MAY\DEBUG\VC100.PDB
^F:\FASTDPM-2015-NOV\FASTDPM-2015-NOV\FASTDPM-2014-MAY\FUNS\GET_SCORE_SIZE.CPP
F:\FASTDPM-2015-NOV\FASTDPM-2015-NOV\FASTDPM-2014-MAY\DEBUG\VC100.PDB
^F:\FASTDPM-2015-NOV\FASTDPM-2015-NOV\FASTDPM-2014-MAY\FUNS\LOAD_MODEL.CPP
F:\FASTDPM-2015-NOV\FASTDPM-2015-NOV\FASTDPM-2014-MAY\DEBUG\VC100.PDB
^F:\FASTDPM-2015-NOV\FASTDPM-2015-NOV\FASTDPM-2014-MAY\FUNS\LOC_FEAT.CPP
F:\FASTDPM-2015-NOV\FASTDPM-2015-NOV\FASTDPM-2014-MAY\DEBUG\VC100.PDB
^F:\FASTDPM-2015-NOV\FASTDPM-2015-NOV\FASTDPM-2014-MAY\FUNS\MODEL_GET_BLOCK.CPP
F:\FASTDPM-2015-NOV\FASTDPM-2015-NOV\FASTDPM-2014-MAY\DEBUG\VC100.PDB
^F:\FASTDPM-2015-NOV\FASTDPM-2015-NOV\FASTDPM-2014-MAY\FUNS\NMS.CPP
F:\FASTDPM-2015-NOV\FASTDPM-2015-NOV\FASTDPM-2014-MAY\DEBUG\VC100.PDB
^F:\FASTDPM-2015-NOV\FASTDPM-2015-NOV\FASTDPM-2014-MAY\FUNS\PARSE_DETECTIONS.CPP
F:\FASTDPM-2015-NOV\FASTDPM-2015-NOV\FASTDPM-2014-MAY\DEBUG\VC100.PDB
^F:\FASTDPM-2015-NOV\FASTDPM-2015-NOV\FASTDPM-2014-MAY\FUNS\PDOLLAR_NMS.CPP
F:\FASTDPM-2015-NOV\FASTDPM-2015-NOV\FASTDPM-2014-MAY\DEBUG\VC100.PDB
^F:\FASTDPM-2015-NOV\FASTDPM-2015-NOV\FASTDPM-2014-MAY\FUNS\REDUCEBOXES.CPP
F:\FASTDPM-2015-NOV\FASTDPM-2015-NOV\FASTDPM-2014-MAY\DEBUG\VC100.PDB
^F:\FASTDPM-2015-NOV\FASTDPM-2015-NOV\FASTDPM-2014-MAY\FUNS\SUM_SCORE.CPP
F:\FASTDPM-2015-NOV\FASTDPM-2015-NOV\FASTDPM-2014-MAY\DEBUG\VC100.PDB
^F:\FASTDPM-2015-NOV\FASTDPM-2015-NOV\FASTDPM-2014-MAY\FUNS\YUIND2SUB.CPP
F:\FASTDPM-2015-NOV\FASTDPM-2015-NOV\FASTDPM-2014-MAY\DEBUG\VC100.PDB
^F:\FASTDPM-2015-NOV\FASTDPM-2015-NOV\FASTDPM-2014-MAY\AUXILIARY\CVPRINT.CPP|F:\FASTDPM-2015-NOV\FASTDPM-2015-NOV\FASTDPM-2014-MAY\AUXILIARY\GETCURRENTTIME.CPP|F:\FASTDPM-2015-NOV\FASTDPM-2015-NOV\FASTDPM-2014-MAY\AUXILIARY\YUSAVEMAT.CPP|F:\FASTDPM-2015-NOV\FASTDPM-2015-NOV\FASTDPM-2014-MAY\FASTDPM.CPP|F:\FASTDPM-2015-NOV\FASTDPM-2015-NOV\FASTDPM-2014-MAY\FUNS\ANALYZE_MODEL.CPP|F:\FASTDPM-2015-NOV\FASTDPM-2015-NOV\FASTDPM-2014-MAY\FUNS\APPLY_RULES.CPP|F:\FASTDPM-2015-NOV\FASTDPM-2015-NOV\FASTDPM-2014-MAY\FUNS\APPLY_RULES2.CPP|F:\FASTDPM-2015-NOV\FASTDPM-2015-NOV\FASTDPM-2014-MAY\FUNS\APPLY_RULES3.CPP|F:\FASTDPM-2015-NOV\FASTDPM-2015-NOV\FASTDPM-2014-MAY\FUNS\BBOXPRED_GET.CPP|F:\FASTDPM-2015-NOV\FASTDPM-2015-NOV\FASTDPM-2014-MAY\FUNS\BBOXPRED_INPUT.CPP|F:\FASTDPM-2015-NOV\FASTDPM-2015-NOV\FASTDPM-2014-MAY\FUNS\BOUNDED_DT.CPP|F:\FASTDPM-2015-NOV\FASTDPM-2015-NOV\FASTDPM-2014-MAY\FUNS\BOUNDED_DT2.CPP|F:\FASTDPM-2015-NOV\FASTDPM-2015-NOV\FASTDPM-2014-MAY\FUNS\CLIPBOXES.CPP|F:\FASTDPM-2015-NOV\FASTDPM-2015-NOV\FASTDPM-2014-MAY\FUNS\CVPERMUTATE.CPP|F:\FASTDPM-2015-NOV\FASTDPM-2015-NOV\FASTDPM-2014-MAY\FUNS\DETECTIONS_TREES2.CPP|F:\FASTDPM-2015-NOV\FASTDPM-2015-NOV\FASTDPM-2014-MAY\FUNS\DRAW_IMG.CPP|F:\FASTDPM-2015-NOV\FASTDPM-2015-NOV\FASTDPM-2014-MAY\FUNS\FCONV.CPP|F:\FASTDPM-2015-NOV\FASTDPM-2015-NOV\FASTDPM-2014-MAY\FUNS\FEATPYRAMID.CPP|F:\FASTDPM-2015-NOV\FASTDPM-2015-NOV\FASTDPM-2014-MAY\FUNS\FEATPYRAMID2.CPP|F:\FASTDPM-2015-NOV\FASTDPM-2015-NOV\FASTDPM-2014-MAY\FUNS\FEATURES.CPP|F:\FASTDPM-2015-NOV\FASTDPM-2015-NOV\FASTDPM-2014-MAY\FUNS\FEATURES14_2.CPP|F:\FASTDPM-2015-NOV\FASTDPM-2015-NOV\FASTDPM-2014-MAY\FUNS\FLIPFEAT.CPP|F:\FASTDPM-2015-NOV\FASTDPM-2015-NOV\FASTDPM-2014-MAY\FUNS\GET_SCORE_SIZE.CPP|F:\FASTDPM-2015-NOV\FASTDPM-2015-NOV\FASTDPM-2014-MAY\FUNS\LOAD_MODEL.CPP|F:\FASTDPM-2015-NOV\FASTDPM-2015-NOV\FASTDPM-2014-MAY\FUNS\LOC_FEAT.CPP|F:\FASTDPM-2015-NOV\FASTDPM-2015-NOV\FASTDPM-2014-MAY\FUNS\MODEL_GET_BLOCK.CPP|F:\FASTDPM-2015-NOV\FASTDPM-2015-NOV\FASTDPM-2014-MAY\FUNS\NMS.CPP|F:\FASTDPM-2015-NOV\FASTDPM-2015-NOV\FASTDPM-2014-MAY\FUNS\PARSE_DETECTIONS.CPP|F:\FASTDPM-2015-NOV\FASTDPM-2015-NOV\FASTDPM-2014-MAY\FUNS\PDOLLAR_NMS.CPP|F:\FASTDPM-2015-NOV\FASTDPM-2015-NOV\FASTDPM-2014-MAY\FUNS\REDUCEBOXES.CPP|F:\FASTDPM-2015-NOV\FASTDPM-2015-NOV\FASTDPM-2014-MAY\FUNS\SUM_SCORE.CPP|F:\FASTDPM-2015-NOV\FASTDPM-2015-NOV\FASTDPM-2014-MAY\FUNS\YUIND2SUB.CPP|F:\FASTDPM-2015-NOV\FASTDPM-2015-NOV\FASTDPM-2014-MAY\LOADPYRAMID.CPP|F:\FASTDPM-2015-NOV\FASTDPM-2015-NOV\FASTDPM-2014-MAY\MAIN.CPP
F:\FASTDPM-2015-NOV\FASTDPM-2015-NOV\FASTDPM-2014-MAY\DEBUG\DETECTIONS_TREES2.OBJ
F:\FASTDPM-2015-NOV\FASTDPM-2015-NOV\FASTDPM-2014-MAY\DEBUG\DRAW_IMG.OBJ
F:\FASTDPM-2015-NOV\FASTDPM-2015-NOV\FASTDPM-2014-MAY\DEBUG\FCONV.OBJ
F:\FASTDPM-2015-NOV\FASTDPM-2015-NOV\FASTDPM-2014-MAY\DEBUG\FEATPYRAMID.OBJ
F:\FASTDPM-2015-NOV\FASTDPM-2015-NOV\FASTDPM-2014-MAY\DEBUG\FEATPYRAMID2.OBJ
F:\FASTDPM-2015-NOV\FASTDPM-2015-NOV\FASTDPM-2014-MAY\DEBUG\FEATURES.OBJ
F:\FASTDPM-2015-NOV\FASTDPM-2015-NOV\FASTDPM-2014-MAY\DEBUG\FEATURES14_2.OBJ
F:\FASTDPM-2015-NOV\FASTDPM-2015-NOV\FASTDPM-2014-MAY\DEBUG\FLIPFEAT.OBJ
F:\FASTDPM-2015-NOV\FASTDPM-2015-NOV\FASTDPM-2014-MAY\DEBUG\GET_SCORE_SIZE.OBJ
F:\FASTDPM-2015-NOV\FASTDPM-2015-NOV\FASTDPM-2014-MAY\DEBUG\LOAD_MODEL.OBJ
F:\FASTDPM-2015-NOV\FASTDPM-2015-NOV\FASTDPM-2014-MAY\DEBUG\LOC_FEAT.OBJ
F:\FASTDPM-2015-NOV\FASTDPM-2015-NOV\FASTDPM-2014-MAY\DEBUG\MODEL_GET_BLOCK.OBJ
F:\FASTDPM-2015-NOV\FASTDPM-2015-NOV\FASTDPM-2014-MAY\DEBUG\NMS.OBJ
F:\FASTDPM-2015-NOV\FASTDPM-2015-NOV\FASTDPM-2014-MAY\DEBUG\PDOLLAR_NMS.OBJ
F:\FASTDPM-2015-NOV\FASTDPM-2015-NOV\FASTDPM-2014-MAY\DEBUG\PARSE_DETECTIONS.OBJ
F:\FASTDPM-2015-NOV\FASTDPM-2015-NOV\FASTDPM-2014-MAY\DEBUG\REDUCEBOXES.OBJ
F:\FASTDPM-2015-NOV\FASTDPM-2015-NOV\FASTDPM-2014-MAY\DEBUG\SUM_SCORE.OBJ
F:\FASTDPM-2015-NOV\FASTDPM-2015-NOV\FASTDPM-2014-MAY\DEBUG\YUIND2SUB.OBJ
F:\FASTDPM-2015-NOV\FASTDPM-2015-NOV\FASTDPM-2014-MAY\DEBUG\LOADPYRAMID.OBJ
F:\FASTDPM-2015-NOV\FASTDPM-2015-NOV\FASTDPM-2014-MAY\DEBUG\MAIN.OBJ
F:\FASTDPM-2015-NOV\FASTDPM-2015-NOV\FASTDPM-2014-MAY\DEBUG\FASTDPM.OBJ
F:\FASTDPM-2015-NOV\FASTDPM-2015-NOV\FASTDPM-2014-MAY\DEBUG\CVPRINT.OBJ
F:\FASTDPM-2015-NOV\FASTDPM-2015-NOV\FASTDPM-2014-MAY\DEBUG\GETCURRENTTIME.OBJ
F:\FASTDPM-2015-NOV\FASTDPM-2015-NOV\FASTDPM-2014-MAY\DEBUG\YUSAVEMAT.OBJ
F:\FASTDPM-2015-NOV\FASTDPM-2015-NOV\FASTDPM-2014-MAY\DEBUG\ANALYZE_MODEL.OBJ
F:\FASTDPM-2015-NOV\FASTDPM-2015-NOV\FASTDPM-2014-MAY\DEBUG\APPLY_RULES.OBJ
F:\FASTDPM-2015-NOV\FASTDPM-2015-NOV\FASTDPM-2014-MAY\DEBUG\APPLY_RULES2.OBJ
F:\FASTDPM-2015-NOV\FASTDPM-2015-NOV\FASTDPM-2014-MAY\DEBUG\APPLY_RULES3.OBJ
F:\FASTDPM-2015-NOV\FASTDPM-2015-NOV\FASTDPM-2014-MAY\DEBUG\BBOXPRED_GET.OBJ
F:\FASTDPM-2015-NOV\FASTDPM-2015-NOV\FASTDPM-2014-MAY\DEBUG\BBOXPRED_INPUT.OBJ
F:\FASTDPM-2015-NOV\FASTDPM-2015-NOV\FASTDPM-2014-MAY\DEBUG\BOUNDED_DT.OBJ
F:\FASTDPM-2015-NOV\FASTDPM-2015-NOV\FASTDPM-2014-MAY\DEBUG\BOUNDED_DT2.OBJ
F:\FASTDPM-2015-NOV\FASTDPM-2015-NOV\FASTDPM-2014-MAY\DEBUG\CLIPBOXES.OBJ
F:\FASTDPM-2015-NOV\FASTDPM-2015-NOV\FASTDPM-2014-MAY\DEBUG\CVPERMUTATE.OBJ
